{
    "id": "i3plus",
    "name": "i3 Plus",
    "version": 2,
    "inherits": "fdmprinter",
    "metadata": {
        "visible": true,
        "manufacturer": "Wanhao",
        "category": "Wanhao",
        "has_materials": true,
        "file_formats": "text/x-gcode",
        "platform": "Wanhao_200_200.obj",
        "platform_texture": "big_wanhao_texture.png",
        "platform_offset": [ 0, -28, 0]
    },

    "overrides": {
        "machine_name": { "default_value": "i3 Plus" },
        "machine_start_gcode": {
            "default_value": "G21 ;metric values\n G90 ;absolute positioning\n M82 ;set extruder to absolute mode\n M107 ;start with the fan off\n G28 X0 Y0 ;move X/Y to min endstops\n G28 Z0 ;move Z to min endstops\n G1 Z15.0 F{travel_speed} ;move the platform down 15mm\n G92 E0 ;zero the extruded length\n G1 F200 E6 ;extrude 6 mm of feed stock\n G92 E0 ;zero the extruded length again\n G1 F{travel_speed} \n ;Put printing message on LCD screen\n M117 Printing..."
        },
        "machine_end_gcode": {
            "default_value": "M104 S0 ;extruder heater off \n G91 ;relative positioning\n G1 E-1 F300  ;retract the filament a bit before lifting the nozzle, to release some of the pressure\n G1 Z+0.5 E-5 X-20 Y-20 F{travel_speed} ;move Z up a bit and retract filament even more\n G28 X0 Y0 ;move X/Y to min endstops, so the head is out of the way\n M84 ;steppers off\n G90 ;absolute positioning"
        },
        "material_bed_temperature": { "default_value": 50 },
        "support_angle": { "default_value": 60 },
        "speed_layer_0": { "default_value": 30 },
        "line_width": { "default_value": 0.4 },
        "speed_infill": { "default_value": 60 },
        "prime_tower_size": { "default_value": 8.660254037844387 },
        "support_enable": { "default_value": true },
        "layer_height_0": { "default_value": 0.15 },
        "top_thickness": { "default_value": 0.6 },
        "material_diameter": { "default_value": 1.75 },
        "bottom_thickness": { "default_value": 0.6 },
        "material_flow": { "default_value": 100 },
        "infill_sparse_density": { "default_value": 10 },
        "wall_thickness": { "default_value": 1.2 },
        "material_print_temperature": { "default_value": 200 },
        "layer_height": { "default_value": 0.15 },
        "speed_print": { "default_value": 40 },
        "speed_travel": { "value": "150" },
        "machine_extruder_count": { "default_value": 1 },
        "machine_heated_bed": { "default_value": true },
        "machine_height": { "default_value": 180 },
        "adhesion_type": { "default_value": "raft" },
        "machine_gcode_flavor": { "default_value": "RepRap (Marlin/Sprinter)" },
        "machine_depth": { "default_value": 200 },
        "machine_width": { "default_value": 200 },
        "machine_nozzle_size": {
            "default_value": 0.4
        },
        "machine_name": { "default_value": "i3 Plus" }
    }
}
